Categories:Navigation
License:GPLv3
Author Name:Francesco Vasco
Author Email:fsco_v-github@yahoo.it
Web Site:https://fvasco.github.io/pinpoi/
Source Code:https://github.com/fvasco/pinpoi
Issue Tracker:https://github.com/fvasco/pinpoi/issues
Donate:https://fvasco.github.io/pinpoi/

Auto Name:PinPoi
Summary:Import and manage points of interest
Description:
PinPoi imports thousand points of interest for your gps navigator.

You can import Google KML and KMZ, TomTom OV2, simple GeoRSS, Garmin GPX,
Navigon ASC, CSV and zipped collections directly into your phone and organize
them in collections.

PinPoi searches using your gps position or a custom location, you can choose
your destination from a map and open it with your preferred app.
.

Repo Type:git
Repo:https://github.com/fvasco/pinpoi.git

Build:0.1,1
    commit=0.1.0
    subdir=app
    gradle=yes

Build:0.1.1,2
    commit=0.1.1
    subdir=app
    gradle=yes

Build:0.1.2,3
    commit=0.1.2
    subdir=app
    gradle=yes

Build:0.2.0,4
    commit=0.2.0
    subdir=app
    gradle=yes

Build:0.2.1,5
    commit=0.2.1
    subdir=app
    gradle=yes

Build:0.2.2,6
    commit=0.2.2
    subdir=app
    gradle=yes

Build:0.3.0,7
    commit=0.3.0
    subdir=app
    gradle=yes

Build:0.3.1,8
    commit=0.3.1
    subdir=app
    gradle=yes

Build:0.3.2,9
    commit=0.3.2
    subdir=app
    gradle=yes

Build:0.3.3,10
    commit=0.3.3
    subdir=app
    gradle=yes

Build:0.3.4,11
    commit=0.3.4
    subdir=app
    gradle=yes

Build:0.3.5,12
    commit=0.3.5
    subdir=app
    gradle=yes

Build:0.3.6,13
    commit=0.3.6
    subdir=app
    gradle=yes

Build:0.4.0,14
    commit=0.4.0
    subdir=app
    gradle=yes

Build:0.4.1,15
    commit=0.4.1
    subdir=app
    gradle=yes

Build:0.4.2,16
    commit=0.4.2
    subdir=app
    gradle=yes

Build:0.4.3,17
    commit=0.4.3
    subdir=app
    gradle=yes

Build:0.4.4,18
    commit=0.4.4
    subdir=app
    gradle=yes

Build:0.4.5,19
    commit=0.4.5
    subdir=app
    gradle=yes

Build:0.4.6,20
    commit=0.4.6
    subdir=app
    gradle=yes

Build:1.0.0,21
    commit=1.0.0
    subdir=app
    gradle=yes

Build:1.0.1,22
    commit=1.0.1
    subdir=app
    gradle=yes

Build:1.0.2,23
    commit=1.0.2
    subdir=app
    gradle=yes

Build:1.1.0,24
    commit=1.1.0
    subdir=app
    gradle=yes

Build:1.1.1,25
    commit=1.1.1
    subdir=app
    gradle=yes

Build:1.1.2,26
    commit=1.1.2
    subdir=app
    gradle=yes

Build:1.2.1,27
    commit=1.2.1
    subdir=app
    gradle=yes

Build:1.2.2,28
    commit=1.2.2
    subdir=app
    gradle=yes

Build:1.3.0,29
    commit=1.3.0
    subdir=app
    gradle=yes

Auto Update Mode:Version %v
Update Check Mode:Tags
Current Version:1.3.0
Current Version Code:29
